{
    "index_patterns": ["monit_prod_fts-agent-logs_logs_server*"],
    "order": 2,
    "mappings": {
        "_default_": {
            "properties": {
                "metadata": {
                    "properties": {
                        "jobs_backup": {
                            "type": "long"
                        },
                        "files_backup": {
                            "type": "long"
                        }
                    }
                }
            }
        }
    },
    "settings":{
        "index":{
            "number_of_shards":5
        }
    },
    "aliases":{
        "monit_prod_fts-agent-logs_logs":{}
    }
}
