{
    "index_patterns": ["monit_prod_tape_logs_*"],
    "order": 3,
    "mappings":{
        "_default_" : {
            "numeric_detection": false,
            "properties": {
		        "data": {
		            "properties": {
		                "timestamp": {
		                    "type": "date"
		                }
		            }
		        }
	        }
        }
    },
    "aliases":{
        "monit_prod_tape_logs":{}
    }
}
