{
    "index_patterns": ["monit_prod_openstack_logs_generic*"],
    "order":2,
    "settings":{
        "index":{
            "number_of_shards":10
        }
    },
    "mappings":{
        "_default_":{
            "date_detection":true,
            "numeric_detection":true
        }
    }
}
