{
    "index_patterns":["monit_prod_fts-agent-logs_logs_httpd-access*"],
    "order": 2,
    "mappings":{
        "_default_":{
            "properties": {
                "metadata": {
                    "properties": {
                        "bytes_xfered": {
                            "type": "long"
                        },
                        "time_taken": {
                            "type": "long"
                        },
                        "ip_address": {
                            "type": "ip"
                        }
                    }
                }
            }
        }
    },
    "aliases":{
        "monit_prod_fts-agent-logs_logs":{}
    }
}
