{
    "index_patterns": ["monit_prod_teigi_logs_*"],
    "order": 2,
    "mappings": {
        "_default_": {
            "numeric_detection": false,
            "properties": {
                "data": {
                    "properties": {
                        "numberofbytes": {
                            "type": "keyword"
                        },
                        "response": {
                            "type": "short"
                        },
                        "responsetime": {
                            "type": "long"
                        }
                    }
                }
            }
        }
    }
}

